%YAML 1.1
%TAG !u! tag:unity3d.com,2011:
--- !u!1045 &1
EditorBuildSettings:
  m_ObjectHideFlags: 0
  serializedVersion: 2
  m_Scenes:
  - enabled: 1
    path: Assets/Scenes/StartScene.unity
    guid: 6473861a56915f043b301cb1b4efbab2
  - enabled: 1
    path: Assets/Scenes/GameScene.unity
    guid: 1de66d9e0f75269488e1ea38fed128f4
  m_configObjects: {}
