%YAML 1.1
%TAG !u! tag:unity3d.com,2011:
--- !u!225 &4731929203828158052
CanvasGroup:
  m_ObjectHideFlags: 0
  m_CorrespondingSourceObject: {fileID: 0}
  m_PrefabInstance: {fileID: 0}
  m_PrefabAsset: {fileID: 0}
  m_GameObject: {fileID: 4044366008719273264}
  m_Enabled: 1
  m_Alpha: 1
  m_Interactable: 1
  m_BlocksRaycasts: 1
  m_IgnoreParentGroups: 0
--- !u!1001 &1593161535433288608
PrefabInstance:
  m_ObjectHideFlags: 0
  serializedVersion: 2
  m_Modification:
    m_TransformParent: {fileID: 0}
    m_Modifications:
    - target: {fileID: 332851462441210391, guid: c3ea52f906a4eda4cb6ce9da3c3451fa,
        type: 3}
      propertyPath: m_Pivot.x
      value: 0.5
      objectReference: {fileID: 0}
    - target: {fileID: 332851462441210391, guid: c3ea52f906a4eda4cb6ce9da3c3451fa,
        type: 3}
      propertyPath: m_Pivot.y
      value: 0.5
      objectReference: {fileID: 0}
    - target: {fileID: 332851462441210391, guid: c3ea52f906a4eda4cb6ce9da3c3451fa,
        type: 3}
      propertyPath: m_RootOrder
      value: 0
      objectReference: {fileID: 0}
    - target: {fileID: 332851462441210391, guid: c3ea52f906a4eda4cb6ce9da3c3451fa,
        type: 3}
      propertyPath: m_AnchorMax.x
      value: 0
      objectReference: {fileID: 0}
    - target: {fileID: 332851462441210391, guid: c3ea52f906a4eda4cb6ce9da3c3451fa,
        type: 3}
      propertyPath: m_AnchorMax.y
      value: 0
      objectReference: {fileID: 0}
    - target: {fileID: 332851462441210391, guid: c3ea52f906a4eda4cb6ce9da3c3451fa,
        type: 3}
      propertyPath: m_AnchorMin.x
      value: 0
      objectReference: {fileID: 0}
    - target: {fileID: 332851462441210391, guid: c3ea52f906a4eda4cb6ce9da3c3451fa,
        type: 3}
      propertyPath: m_AnchorMin.y
      value: 0
      objectReference: {fileID: 0}
    - target: {fileID: 332851462441210391, guid: c3ea52f906a4eda4cb6ce9da3c3451fa,
        type: 3}
      propertyPath: m_SizeDelta.x
      value: 0
      objectReference: {fileID: 0}
    - target: {fileID: 332851462441210391, guid: c3ea52f906a4eda4cb6ce9da3c3451fa,
        type: 3}
      propertyPath: m_SizeDelta.y
      value: 0
      objectReference: {fileID: 0}
    - target: {fileID: 332851462441210391, guid: c3ea52f906a4eda4cb6ce9da3c3451fa,
        type: 3}
      propertyPath: m_LocalPosition.x
      value: 0
      objectReference: {fileID: 0}
    - target: {fileID: 332851462441210391, guid: c3ea52f906a4eda4cb6ce9da3c3451fa,
        type: 3}
      propertyPath: m_LocalPosition.y
      value: 0
      objectReference: {fileID: 0}
    - target: {fileID: 332851462441210391, guid: c3ea52f906a4eda4cb6ce9da3c3451fa,
        type: 3}
      propertyPath: m_LocalPosition.z
      value: 0
      objectReference: {fileID: 0}
    - target: {fileID: 332851462441210391, guid: c3ea52f906a4eda4cb6ce9da3c3451fa,
        type: 3}
      propertyPath: m_LocalRotation.w
      value: 1
      objectReference: {fileID: 0}
    - target: {fileID: 332851462441210391, guid: c3ea52f906a4eda4cb6ce9da3c3451fa,
        type: 3}
      propertyPath: m_LocalRotation.x
      value: 0
      objectReference: {fileID: 0}
    - target: {fileID: 332851462441210391, guid: c3ea52f906a4eda4cb6ce9da3c3451fa,
        type: 3}
      propertyPath: m_LocalRotation.y
      value: 0
      objectReference: {fileID: 0}
    - target: {fileID: 332851462441210391, guid: c3ea52f906a4eda4cb6ce9da3c3451fa,
        type: 3}
      propertyPath: m_LocalRotation.z
      value: 0
      objectReference: {fileID: 0}
    - target: {fileID: 332851462441210391, guid: c3ea52f906a4eda4cb6ce9da3c3451fa,
        type: 3}
      propertyPath: m_AnchoredPosition.x
      value: 0
      objectReference: {fileID: 0}
    - target: {fileID: 332851462441210391, guid: c3ea52f906a4eda4cb6ce9da3c3451fa,
        type: 3}
      propertyPath: m_AnchoredPosition.y
      value: 0
      objectReference: {fileID: 0}
    - target: {fileID: 332851462441210391, guid: c3ea52f906a4eda4cb6ce9da3c3451fa,
        type: 3}
      propertyPath: m_LocalEulerAnglesHint.x
      value: 0
      objectReference: {fileID: 0}
    - target: {fileID: 332851462441210391, guid: c3ea52f906a4eda4cb6ce9da3c3451fa,
        type: 3}
      propertyPath: m_LocalEulerAnglesHint.y
      value: 0
      objectReference: {fileID: 0}
    - target: {fileID: 332851462441210391, guid: c3ea52f906a4eda4cb6ce9da3c3451fa,
        type: 3}
      propertyPath: m_LocalEulerAnglesHint.z
      value: 0
      objectReference: {fileID: 0}
    - target: {fileID: 3331663775440914064, guid: c3ea52f906a4eda4cb6ce9da3c3451fa,
        type: 3}
      propertyPath: m_Name
      value: Harf2 Variant
      objectReference: {fileID: 0}
    - target: {fileID: 5526040941592478942, guid: c3ea52f906a4eda4cb6ce9da3c3451fa,
        type: 3}
      propertyPath: m_Sprite
      value: 
      objectReference: {fileID: 21300000, guid: 61b25046c16c07a42a4011966aa71583,
        type: 3}
    - target: {fileID: 5526040941592478942, guid: c3ea52f906a4eda4cb6ce9da3c3451fa,
        type: 3}
      propertyPath: m_Color.b
      value: 0
      objectReference: {fileID: 0}
    - target: {fileID: 5526040941592478942, guid: c3ea52f906a4eda4cb6ce9da3c3451fa,
        type: 3}
      propertyPath: m_Color.g
      value: 0
      objectReference: {fileID: 0}
    - target: {fileID: 5526040941592478942, guid: c3ea52f906a4eda4cb6ce9da3c3451fa,
        type: 3}
      propertyPath: m_Color.r
      value: 0
      objectReference: {fileID: 0}
    - target: {fileID: 6400692634242749215, guid: c3ea52f906a4eda4cb6ce9da3c3451fa,
        type: 3}
      propertyPath: m_FontData.m_MaxSize
      value: 90
      objectReference: {fileID: 0}
    - target: {fileID: 6400692634242749215, guid: c3ea52f906a4eda4cb6ce9da3c3451fa,
        type: 3}
      propertyPath: m_FontData.m_MinSize
      value: 9
      objectReference: {fileID: 0}
    - target: {fileID: 6400692634242749215, guid: c3ea52f906a4eda4cb6ce9da3c3451fa,
        type: 3}
      propertyPath: m_FontData.m_FontSize
      value: 90
      objectReference: {fileID: 0}
    m_RemovedComponents: []
  m_SourcePrefab: {fileID: 100100000, guid: c3ea52f906a4eda4cb6ce9da3c3451fa, type: 3}
--- !u!1 &4044366008719273264 stripped
GameObject:
  m_CorrespondingSourceObject: {fileID: 3331663775440914064, guid: c3ea52f906a4eda4cb6ce9da3c3451fa,
    type: 3}
  m_PrefabInstance: {fileID: 1593161535433288608}
  m_PrefabAsset: {fileID: 0}
